[
  {
    "id": 1,
    "name": "Partido Social Democrata",
    "short": "PPD/PSD",
    "color": "#FF6500"
  },
  {
    "id": 2,
    "name": "Partido Socialista",
    "short": "PS",
    "color": "#C91C21"
  },
  {
    "id": 3,
    "name": "Partido Popular Centro Democrático Social",
    "short": "CDS/PP",
    "color": "#0076D0"
  },
  {
    "id": 4,
    "name": "Iniciativa Liberal",
    "short": "IL",
    "color": "#00ADEE"
  },
  {
    "id": 5,
    "name": "Coligação Democrática Unitária",
    "short": "CDU/PCP/PEV",
    "color": "#006699"
  },
  {
    "id": 6,
    "name": "Chega",
    "short": "C",
    "color": "#202056"
  }
]
